module gitlab.com/smueller18/cert-manager-webhook-inwx

go 1.13

require (
	github.com/go-logr/logr v0.2.1
	github.com/jetstack/cert-manager v1.0.1
	github.com/miekg/dns v1.1.29
	github.com/nrdcg/goinwx v0.6.1
	k8s.io/apiextensions-apiserver v0.19.0
	k8s.io/apimachinery v0.19.0
	k8s.io/client-go v0.19.0
	k8s.io/klog v1.0.0
)
